<svg xmlns="http://www.w3.org/2000/svg" width="42.01" height="42.147" viewBox="0 0 42.01 42.147">
  <path id="Path_1" data-name="Path 1" d="M56.712-224.627,41.319-244.966a48.351,48.351,0,0,1-2.981-4.35h-.122q.183,3.115.183,7v17.693H26.231v-42.147H38.642L53.4-247.435q.274.382.669.911t.791,1.087q.4.558.745,1.087a6.626,6.626,0,0,1,.532.941h.122a36.918,36.918,0,0,1-.183-4.467v-18.9H68.241v42.147Z" transform="translate(-26.231 266.774)" fill="#222"/>
</svg>
